<?xml version="1.0" standalone="no"?>
<!DOCTYPE svg PUBLIC "-//W3C//DTD SVG 20010904//EN"
 "http://www.w3.org/TR/2001/REC-SVG-20010904/DTD/svg10.dtd">
<svg version="1.0" xmlns="http://www.w3.org/2000/svg"
 width="700.000000pt" height="700.000000pt" viewBox="0 0 700.000000 700.000000"
 preserveAspectRatio="xMidYMid meet">
<metadata>
Created by potrace 1.11, written by Peter Selinger 2001-2013
</metadata>
<g transform="translate(0.000000,700.000000) scale(0.100000,-0.100000)"
fill="#000000" stroke="none">
<path d="M3455 6768 c-435 -221 -2656 -1499 -2794 -1607 -24 -18 -24 -20 -32
-282 -10 -342 -10 -2436 0 -2778 8 -262 8 -264 32 -282 133 -104 2410 -1414
2788 -1604 53 -26 81 -35 100 -30 59 14 1049 569 1972 1105 742 432 881 517
900 553 21 37 34 1511 22 2462 -9 780 -10 817 -29 841 -34 46 -912 564 -1979
1166 -645 365 -873 488 -900 488 -11 -1 -47 -15 -80 -32z m365 -141 c626 -342
2302 -1309 2527 -1458 l52 -34 8 -85 c10 -111 11 -3009 0 -3120 -8 -84 -9 -86
-45 -110 -312 -207 -2720 -1584 -2811 -1607 -16 -4 -45 5 -90 27 -346 169
-2692 1518 -2775 1595 -23 21 -24 28 -31 256 -10 304 -10 2494 0 2798 7 225 8
235 30 255 83 77 2315 1362 2769 1594 l79 41 61 -31 c34 -17 135 -71 226 -121z"/>
<path d="M3366 5909 l-26 -31 0 -530 c0 -345 -4 -554 -11 -595 -8 -45 -32
-105 -81 -200 -134 -260 -139 -287 -145 -736 l-5 -358 88 3 87 3 13 63 c34
167 128 282 231 282 24 0 56 -6 72 -14 34 -18 94 -84 117 -128 9 -18 18 -34
19 -36 1 -2 21 7 44 19 32 16 53 20 84 16 40 -5 43 -3 66 31 23 37 23 38 18
257 -8 296 -27 374 -146 599 -33 61 -65 129 -72 151 -10 30 -15 182 -19 612
l-5 571 -24 26 c-24 25 -28 26 -152 26 l-127 0 -26 -31z"/>
<path d="M3508 3573 c-8 -10 -20 -33 -26 -52 -7 -19 -40 -60 -77 -95 -78 -73
-81 -94 -30 -179 24 -40 35 -70 35 -98 0 -35 3 -39 25 -39 14 0 25 5 25 10 0
6 -7 10 -15 10 -21 0 -19 56 3 84 24 32 42 11 42 -49 0 -41 2 -45 25 -45 14 0
25 5 25 10 0 6 -7 10 -15 10 -10 0 -15 10 -15 34 0 18 7 39 15 46 8 7 15 16
15 21 0 4 11 19 24 32 25 25 56 111 56 153 0 40 21 73 51 79 20 5 29 13 29 26
0 15 -7 19 -33 19 -21 0 -41 8 -52 20 -23 26 -86 27 -107 3z m96 -22 c28 -30
17 -73 -22 -93 -32 -16 -30 -34 2 -22 12 5 16 0 16 -17 -2 -65 -83 -201 -110
-184 -9 6 -6 13 11 26 13 10 20 21 16 25 -4 4 -13 2 -19 -4 -7 -7 -22 -12 -34
-12 -16 0 -24 -7 -26 -22 -4 -28 -26 -35 -35 -11 -3 10 -15 29 -25 42 -30 40
-23 76 24 118 73 67 98 95 98 112 0 53 69 81 104 42z m69 -28 c-7 -2 -19 -2
-25 0 -7 3 -2 5 12 5 14 0 19 -2 13 -5z"/>
<path d="M3565 3520 c3 -5 8 -10 11 -10 2 0 4 5 4 10 0 6 -5 10 -11 10 -5 0
-7 -4 -4 -10z"/>
<path d="M3770 3367 c0 -114 -46 -264 -105 -341 -50 -66 -120 -93 -188 -75
-48 13 -115 78 -141 137 l-20 43 -24 -68 c-32 -90 -77 -157 -141 -215 l-52
-47 3 -204 c5 -308 -18 -292 408 -292 l315 0 3 548 c2 468 0 547 -12 547 -8 0
-21 3 -30 6 -13 5 -16 -2 -16 -39z"/>
<path d="M2564 3138 c4 -24 20 -70 35 -103 130 -275 442 -298 603 -45 25 39
68 154 68 181 0 5 -153 9 -356 9 l-357 0 7 -42z"/>
</g>
</svg>
